RaiseGenic PhenotypicData Vis
…
patients who received the same drug in different doses

epi25o_ss %>% 
  group_by(record_id, aed_generic_name) %>% 
  filter(!c(n() > 1 & NA %in% max_dose)) %>% 
  filter(length(unique(max_dose)) > 1) %>% 
  select(!c(local_identifier, broad_id, sex, yob, still_on_aed, max_dose_serum, 
            adr_type, attributed_aed, starts_with("ethnicity"), hispanic_status, 
            family_history, fam_first_deg)) %>% 
  arrange(record_id, aed_generic_name, start_date)

# A tibble: 34 × 14
# Groups:   record_id, aed_generic_name [17]
   record_id    aed_generic_name aed_outcome stop_reason start_date stop_date
   <chr>                   <dbl>       <dbl>       <dbl> <chr>      <chr>    
 1 BELULBBEP166               28           1           5 1993-4-15  <NA>     
 2 BELULBBEP166               28           1           2 1997-4-1   <NA>     
 3 BELULBBEP254               13           2           3 2003-6-18  <NA>     
 4 BELULBBEP254               13           3           1 2006-11-8  <NA>     
 5 BELULBBEP368                3           2           3 2004-11-18 <NA>     
 6 BELULBBEP368                3           4           6 2007-6-8   <NA>     
 7 BELULBBEP378                3           1           5 1991-1-21  <NA>     
 8 BELULBBEP378                3           1           6 1999-10-6  <NA>     
 9 BELULBBEP380               28           3           2 1999-4-27  <NA>     
10 BELULBBEP380               28           3           2 2003-8-28  <NA>     
# … with 24 more rows, and 8 more variables: aed_adherent <dbl>,
#   initiated_as <dbl>, max_dose <dbl>, appro_aed_trial <dbl>,
#   adr_on_aed <dbl>, n_events <int>, n_drugs <int>, questionnaire <chr>
…
TODO: include hispanic_status in ethnicity__8

syndrome type ee_syndrome_, syndrome

epi25_codebook %>% filter(str_detect(var_name, "syndrome"))

# A tibble: 22 × 3
   var_name         var_label                                         var_values
   <chr>            <chr>                                             <chr>     
 1 ee_syndrome___1  Neonatal onset: Ohtahara syndrome                 <NA>      
 2 ee_syndrome___10 Epilepsy with myoclonic atonic seizures           <NA>      
 3 ee_syndrome___11 Dravet syndrome                                   <NA>      
 4 ee_syndrome___12 Landau-Kleffner syndrome (LKS)                    <NA>      
 5 ee_syndrome___13 Epileptic encephalopathy with continuous spike-a… <NA>      
 6 ee_syndrome___14 Febrile Infection Related Epilepsy Syndrome (FIR… <NA>      
 7 ee_syndrome___15 <NA>                                              <NA>      
 8 ee_syndrome___16 <NA>                                              <NA>      
 9 ee_syndrome___17 <NA>                                              <NA>      
10 ee_syndrome___2  Hemiconvulsion-Hemiplegia-Epilepsy                <NA>      
# … with 12 more rows
…
epi25 %>% select(syndrome_focal, syndrome_GGE, syndrome_notes)

# A tibble: 1,385 × 3
   syndrome_focal syndrome_GGE syndrome_notes
            <dbl>        <dbl> <chr>         
 1             NA          110 <NA>          
 2             NA          105 <NA>          
 3             NA          105 <NA>          
 4             NA          104 <NA>          
 5             NA          103 <NA>          
 6             NA          104 <NA>          
 7             NA          110 <NA>          
 8             NA          110 <NA>          
 9             NA          101 <NA>          
10             NA          104 <NA>          
# … with 1,375 more rows
…
